
# taken from https://searchcode.com/codesearch/view/28421389/

newmtl 01___Default
	Ns 10.0000
	Ni 1.5000
	d 1.0000
	Tr 0.0000
	Tf 1.0000 1.0000 1.0000
	illum 2
	Ka 1.0000 1.0000 1.0000
	Kd 0.8000 0.8000 0.8000
	Ks 0.0000 0.0000 0.0000
	Ke 0.0000 0.0000 0.0000

newmtl 01___Red
	Ns 10.0000
	Ni 1.5000
	d 1.0000
	Tr 0.0000
	Tf 1.0000 1.0000 1.0000
	illum 2
	Ka 1.0000 0.0000 0.0000
	Kd 0.8000 0.0500 0.0500
	Ks 0.0000 0.0000 0.0000
	Ke 0.0000 0.0000 0.0000

newmtl default
	Ns 10.0000
	Ni 1.5000
	d 1.0000
	Tr 0.0000
	Tf 1.0000 1.0000 1.0000
	illum 2
	Ka 1.0000 1.0000 1.0000
	Kd 0.8000 0.8000 0.8000
	Ks 0.0000 0.0000 0.0000
	Ke 0.0000 0.0000 0.0000

newmtl 01___Green
	Ns 10.0000
	Ni 1.5000
	d 1.0000
	Tr 0.0000
	Tf 1.0000 1.0000 1.0000
	illum 2
	Ka 0.0000 1.0000 0.0000
	Kd 0.0500 0.8000 0.0500
	Ks 0.0000 0.0000 0.0000
	Ke 0.0000 0.0000 0.0000

newmtl my_light
	Ns 10.0000
    Ni 1.5000
    d 1.0000
    Tr 0.0000
    Tf 1.0000 1.0000 1.0000
    illum 2
    Ka 0.600 0.600 0.600
    Kd 0.7800 0.7800 0.7800
    Ke 10 10 10
    Ks 0 0 0